Name              Stmts   Miss  Cover   Missing
-----------------------------------------------
bigbang.py            9      0   100%
test_bigbang.py      21      2    90%   9, 15
-----------------------------------------------
TOTAL                30      2    93%
